digraph "ParticleRod"
{
  edge [fontname="Helvetica",fontsize="10",labelfontname="Helvetica",labelfontsize="10"];
  node [fontname="Helvetica",fontsize="10",shape=record];
  Node1 [label="ParticleRod",height=0.2,width=0.4,color="black", fillcolor="grey75", style="filled" fontcolor="black"];
  Node2 -> Node1 [dir="back",color="midnightblue",fontsize="10",style="solid",fontname="Helvetica"];
  Node2 [label="ParticleLink",height=0.2,width=0.4,color="black", fillcolor="white", style="filled",URL="$class_particle_link.html"];
  Node3 -> Node2 [dir="back",color="midnightblue",fontsize="10",style="solid",fontname="Helvetica"];
  Node3 [label="ParticleContactGenerator",height=0.2,width=0.4,color="black", fillcolor="white", style="filled",URL="$class_particle_contact_generator.html"];
  Node4 -> Node2 [dir="back",color="darkorchid3",fontsize="10",style="dashed",label=" particle" ,fontname="Helvetica"];
  Node4 [label="Particle",height=0.2,width=0.4,color="black", fillcolor="white", style="filled",URL="$class_particle.html"];
}
