digraph "Graphical Class Hierarchy"
{
  edge [fontname="Helvetica",fontsize="10",labelfontname="Helvetica",labelfontsize="10"];
  node [fontname="Helvetica",fontsize="10",shape=record];
  rankdir="LR";
  Node1 [label="ForceGenerator",height=0.2,width=0.4,color="black", fillcolor="white", style="filled",URL="$class_force_generator.html"];
  Node1 -> Node2 [dir="back",color="midnightblue",fontsize="10",style="solid",fontname="Helvetica"];
  Node2 [label="Gravity",height=0.2,width=0.4,color="black", fillcolor="white", style="filled",URL="$class_gravity.html"];
  Node1 -> Node3 [dir="back",color="midnightblue",fontsize="10",style="solid",fontname="Helvetica"];
  Node3 [label="Spring",height=0.2,width=0.4,color="black", fillcolor="white", style="filled",URL="$class_spring.html"];
}
