digraph "Graphical Class Hierarchy"
{
  edge [fontname="Helvetica",fontsize="10",labelfontname="Helvetica",labelfontsize="10"];
  node [fontname="Helvetica",fontsize="10",shape=record];
  rankdir="LR";
  Node1 [label="ParticleForceRegistry\l::ParticleForceRegistration",height=0.2,width=0.4,color="black", fillcolor="white", style="filled",URL="$struct_particle_force_registry_1_1_particle_force_registration.html"];
}
