digraph "Graphical Class Hierarchy"
{
  edge [fontname="Helvetica",fontsize="10",labelfontname="Helvetica",labelfontsize="10"];
  node [fontname="Helvetica",fontsize="10",shape=record];
  rankdir="LR";
  Node1 [label="ListObjectViewController()",height=0.2,width=0.4,color="black", fillcolor="white", style="filled",URL="$category_list_object_view_controller_07_08.html"];
}
