digraph "ParticleForceRegistry::ParticleForceRegistration"
{
  edge [fontname="Helvetica",fontsize="10",labelfontname="Helvetica",labelfontsize="10"];
  node [fontname="Helvetica",fontsize="10",shape=record];
  Node1 [label="ParticleForceRegistry\l::ParticleForceRegistration",height=0.2,width=0.4,color="black", fillcolor="grey75", style="filled" fontcolor="black"];
  Node2 -> Node1 [dir="back",color="darkorchid3",fontsize="10",style="dashed",label=" particleForceGenerator" ,fontname="Helvetica"];
  Node2 [label="ParticleForceGenerator",height=0.2,width=0.4,color="black", fillcolor="white", style="filled",URL="$class_particle_force_generator.html"];
  Node3 -> Node1 [dir="back",color="darkorchid3",fontsize="10",style="dashed",label=" particle" ,fontname="Helvetica"];
  Node3 [label="Particle",height=0.2,width=0.4,color="black", fillcolor="white", style="filled",URL="$class_particle.html"];
}
